{
  "students": [
    {
      "id": 1,
      "firstName": "Beverlee new",
      "lastName": "Gertray",
      "gender": "Female",
      "age": "17",
      "size": "3XL"
    },
    {
      "id": 2,
      "firstName": "Dalli",
      "lastName": "Dominicacci",
      "gender": "Male",
      "age": 18,
      "size": "3XL"
    },
    {
      "id": 3,
      "firstName": "Tammi",
      "lastName": "Kienlein",
      "gender": "Female",
      "age": "20",
      "size": "M"
    },
    {
      "id": 4,
      "firstName": "Lilah",
      "lastName": "Slate",
      "gender": "Female",
      "age": 19,
      "size": "S"
    },
    {
      "id": 5,
      "firstName": "Janos",
      "lastName": "Gawthorpe",
      "gender": "Male",
      "age": 19,
      "size": "3XL"
    },
    {
      "id": 6,
      "firstName": "Johnnie",
      "lastName": "Traynor",
      "gender": "Male",
      "age": 18,
      "size": "3XL"
    },
    {
      "id": 7,
      "firstName": "Uriel",
      "lastName": "Gutch",
      "gender": "Male",
      "age": 20,
      "size": "M"
    },
    {
      "id": 8,
      "firstName": "Byram",
      "lastName": "Jersch",
      "gender": "Male",
      "age": 20,
      "size": "L"
    },
    {
      "id": 9,
      "firstName": "Cob",
      "lastName": "Hyndes",
      "gender": "Male",
      "age": 14,
      "size": "2XL"
    },
    {
      "id": 10,
      "firstName": "Gertrudis",
      "lastName": "Houldin",
      "gender": "Female",
      "age": 12,
      "size": "3XL"
    },
    {
      "id": 11,
      "firstName": "La verne",
      "lastName": "Adrianello",
      "gender": "Female",
      "age": 10,
      "size": "L"
    },
    {
      "id": 12,
      "firstName": "Douglass",
      "lastName": "Hallbird",
      "gender": "Male",
      "age": 20,
      "size": "3XL"
    },
    {
      "id": 13,
      "firstName": "Huey",
      "lastName": "Andres",
      "gender": "Male",
      "age": 16,
      "size": "3XL"
    },
    {
      "id": 14,
      "firstName": "Jackqueline",
      "lastName": "Johannesson",
      "gender": "Female",
      "age": 18,
      "size": "L"
    },
    {
      "id": 15,
      "firstName": "Augustin",
      "lastName": "Ends",
      "gender": "Male",
      "age": 14,
      "size": "S"
    },
    {
      "id": 16,
      "firstName": "Petronille",
      "lastName": "Emmott",
      "gender": "Female",
      "age": 11,
      "size": "XS"
    },
    {
      "id": 17,
      "firstName": "Cecily",
      "lastName": "Josovich",
      "gender": "Female",
      "age": 18,
      "size": "L"
    },
    {
      "id": 18,
      "firstName": "Dorie",
      "lastName": "Fricke",
      "gender": "Male",
      "age": 14,
      "size": "3XL"
    },
    {
      "id": 19,
      "firstName": "Eddy",
      "lastName": "Dodman",
      "gender": "Male",
      "age": 12,
      "size": "M"
    },
    {
      "id": 20,
      "firstName": "Murray",
      "lastName": "Sabater",
      "gender": "Male",
      "age": 10,
      "size": "3XL"
    },
    {
      "id": 21,
      "firstName": "Danny",
      "lastName": "Lakey",
      "gender": "Male",
      "age": 20,
      "size": "S"
    },
    {
      "id": 22,
      "firstName": "Tracy",
      "lastName": "Davidi",
      "gender": "Female",
      "age": 11,
      "size": "M"
    },
    {
      "id": 23,
      "firstName": "Pietro",
      "lastName": "Warman",
      "gender": "Male",
      "age": 16,
      "size": "2XL"
    },
    {
      "id": 24,
      "firstName": "Erroll",
      "lastName": "Steinor",
      "gender": "Male",
      "age": 19,
      "size": "M"
    },
    {
      "id": 25,
      "firstName": "Cortney",
      "lastName": "Jorcke",
      "gender": "Female",
      "age": 19,
      "size": "L"
    },
    {
      "id": 26,
      "firstName": "Cindra",
      "lastName": "Shoreman",
      "gender": "Female",
      "age": 11,
      "size": "2XL"
    },
    {
      "id": 27,
      "firstName": "Molli",
      "lastName": "Cheke",
      "gender": "Female",
      "age": 20,
      "size": "M"
    },
    {
      "id": 28,
      "firstName": "Sheilakathryn",
      "lastName": "Sherrott",
      "gender": "Female",
      "age": 20,
      "size": "XS"
    },
    {
      "id": 29,
      "firstName": "Carlos",
      "lastName": "Nicholas",
      "gender": "Male",
      "age": 11,
      "size": "S"
    },
    {
      "id": 30,
      "firstName": "Carmelia",
      "lastName": "Bannerman",
      "gender": "Female",
      "age": 14,
      "size": "M"
    },
    {
      "id": 31,
      "firstName": "Antonina",
      "lastName": "Waine",
      "gender": "Female",
      "age": 15,
      "size": "M"
    },
    {
      "id": 32,
      "firstName": "Bernadette",
      "lastName": "McInulty",
      "gender": "Female",
      "age": 20,
      "size": "3XL"
    },
    {
      "id": 33,
      "firstName": "Koral",
      "lastName": "Pallis",
      "gender": "Female",
      "age": 19,
      "size": "3XL"
    },
    {
      "id": 34,
      "firstName": "Darn",
      "lastName": "Else",
      "gender": "Male",
      "age": 20,
      "size": "2XL"
    },
    {
      "id": 35,
      "firstName": "Rutherford",
      "lastName": "Chardin",
      "gender": "Male",
      "age": 13,
      "size": "M"
    },
    {
      "id": 36,
      "firstName": "Moises (new)",
      "lastName": "MacTague",
      "gender": "Male",
      "age": 12,
      "size": "3XL"
    },
    {
      "id": 37,
      "firstName": "Gwendolen",
      "lastName": "Born",
      "gender": "Female",
      "age": 18,
      "size": "XS"
    },
    {
      "id": 38,
      "firstName": "Herbert",
      "lastName": "Moggach",
      "gender": "Male",
      "age": 10,
      "size": "S"
    },
    {
      "id": 39,
      "firstName": "Maible",
      "lastName": "Biagini",
      "gender": "Female",
      "age": 13,
      "size": "2XL"
    },
    {
      "id": 40,
      "firstName": "Dagny",
      "lastName": "Leopold",
      "gender": "Male",
      "age": 15,
      "size": "S"
    },
    {
      "id": 41,
      "firstName": "Jinny",
      "lastName": "McHardy",
      "gender": "Female",
      "age": 13,
      "size": "XL"
    },
    {
      "id": 42,
      "firstName": "Armand",
      "lastName": "Cornish",
      "gender": "Male",
      "age": 15,
      "size": "S"
    },
    {
      "id": 43,
      "firstName": "Trent",
      "lastName": "Karlolak",
      "gender": "Male",
      "age": 16,
      "size": "3XL"
    },
    {
      "id": 44,
      "firstName": "Willetta",
      "lastName": "Illing",
      "gender": "Female",
      "age": 14,
      "size": "S"
    },
    {
      "id": 45,
      "firstName": "Wald",
      "lastName": "McMurthy",
      "gender": "Male",
      "age": 17,
      "size": "L"
    },
    {
      "id": 46,
      "firstName": "Aldous",
      "lastName": "Silverston",
      "gender": "Male",
      "age": 10,
      "size": "XS"
    },
    {
      "id": 47,
      "firstName": "Reinaldo",
      "lastName": "Brunroth",
      "gender": "Male",
      "age": 10,
      "size": "L"
    },
    {
      "id": 48,
      "firstName": "Zenia",
      "lastName": "Duffan",
      "gender": "Female",
      "age": 13,
      "size": "S"
    },
    {
      "id": 49,
      "firstName": "Lydon",
      "lastName": "Parlet",
      "gender": "Male",
      "age": 19,
      "size": "S"
    },
    {
      "id": 50,
      "firstName": "Esra",
      "lastName": "Drover",
      "gender": "Male",
      "age": 11,
      "size": "L"
    },
    {
      "firstName": "Hoan",
      "lastName": "Hoan",
      "age": "Fermale",
      "gender": "M",
      "size": "21",
      "id": 51
    },
    {
      "firstName": "Hoan",
      "lastName": "BBB",
      "age": "Female",
      "gender": "3XL",
      "size": "21",
      "id": 52
    }
  ],
  "messages": [
    {
      "id": 1,
      "comment": "Legend"
    },
    {
      "id": 2,
      "comment": "Good"
    },
    {
      "id": 3,
      "comment": "Normal"
    },
    {
      "id": 4,
      "comment": "Week"
    }
  ]
}